{
    "Name": "Hello World!",
    "Description": "I am a quest!",
    "Objectives": [
        {
            "Name": "Human",
            "Type": "1",
            "Number": "1",
        },
    ]
    "Rewards": [
        {
            "Type": "1",
            "Number": "100000000",
        },
    ]
}
